pulse 4543
space 4462
pulse 595
space 1646
pulse 595
space 1642
pulse 595
space 1642
pulse 595
space 525
pulse 595
space 525
pulse 591
space 529
pulse 591
space 525
pulse 595
space 525
pulse 595
space 1642
pulse 595
space 1650
pulse 587
space 1648
pulse 593
space 525
pulse 591
space 529
pulse 591
space 525
pulse 595
space 525
pulse 591
space 529
pulse 593
space 1644
pulse 595
space 526
pulse 589
space 525
pulse 595
space 525
pulse 591
space 1646
pulse 595
space 525
pulse 595
space 525
pulse 600
space 516
pulse 595
space 525
pulse 595
space 1642
pulse 595
space 1642
pulse 595
space 1646
pulse 595
space 520
pulse 601
space 1636
pulse 595
space 1650
pulse 591
space 1642
pulse 597
timeout 143121