pulse 4534
space 4499
pulse 560
space 1680
pulse 561
space 1699
pulse 538
space 1673
pulse 591
space 529
pulse 560
space 560
pulse 587
space 533
pulse 562
space 553
pulse 565
space 555
pulse 560
space 1677
pulse 538
space 1699
pulse 565
space 1677
pulse 560
space 555
pulse 566
space 554
pulse 560
space 559
pulse 566
space 552
pulse 559
space 562
pulse 559
space 554
pulse 590
space 529
pulse 591
space 1646
pulse 591
space 1647
pulse 565
space 555
pulse 534
space 586
pulse 560
space 582
pulse 565
space 529
pulse 560
space 1677
pulse 565
space 1673
pulse 568
space 552
pulse 560
space 556
pulse 565
space 1677
pulse 560
space 1677
pulse 565
space 1673
pulse 591
space 1650
pulse 564
timeout 138493