pulse 4573
space 4437
pulse 618
space 1621
pulse 648
space 1590
pulse 622
space 1616
pulse 622
space 494
pulse 624
space 496
pulse 622
space 499
pulse 648
space 468
pulse 648
space 472
pulse 622
space 1616
pulse 622
space 1616
pulse 622
space 1617
pulse 622
space 502
pulse 647
space 466
pulse 645
space 475
pulse 648
space 465
pulse 622
space 498
pulse 648
space 1590
pulse 622
space 498
pulse 629
space 1609
pulse 622
space 1616
pulse 622
space 499
pulse 648
space 1590
pulse 622
space 498
pulse 622
space 494
pulse 624
space 496
pulse 622
space 1616
pulse 622
space 494
pulse 622
space 498
pulse 622
space 1616
pulse 648
space 472
pulse 622
space 1621
pulse 620
space 1616
pulse 644
timeout 75944