pulse 4549
space 4457
pulse 595
space 1648
pulse 594
space 1642
pulse 595
space 1642
pulse 599
space 520
pulse 595
space 525
pulse 595
space 525
pulse 595
space 520
pulse 595
space 526
pulse 594
space 1642
pulse 596
space 1648
pulse 593
space 1642
pulse 595
space 525
pulse 595
space 520
pulse 602
space 518
pulse 595
space 525
pulse 591
space 525
pulse 595
space 525
pulse 595
space 1642
pulse 595
space 525
pulse 595
space 1642
pulse 598
space 1640
pulse 600
space 520
pulse 595
space 525
pulse 595
space 525
pulse 595
space 1642
pulse 595
space 525
pulse 595
space 1644
pulse 593
space 525
pulse 595
space 524
pulse 592
space 1648
pulse 594
space 1642
pulse 595
space 1642
pulse 595
timeout 139647