pulse 4597
space 4408
pulse 648
space 1589
pulse 621
space 1621
pulse 620
space 1615
pulse 648
space 472
pulse 648
space 468
pulse 652
space 468
pulse 648
space 472
pulse 648
space 468
pulse 626
space 1616
pulse 647
space 1600
pulse 614
space 1613
pulse 625
space 494
pulse 648
space 472
pulse 648
space 468
pulse 652
space 468
pulse 655
space 465
pulse 621
space 494
pulse 626
space 1615
pulse 621
space 494
pulse 652
space 1589
pulse 648
space 468
pulse 626
space 494
pulse 624
space 1613
pulse 626
space 494
pulse 621
space 1615
pulse 652
space 468
pulse 621
space 1616
pulse 626
space 494
pulse 625
space 1616
pulse 620
space 1622
pulse 617
space 495
pulse 621
space 1617
pulse 650
timeout 141776